\relax 
\providecommand\babel@aux[2]{}
\@nameuse{bbl@beforestart}
\providecommand\hyper@newdestlabel[2]{}
\providecommand\HyperFirstAtBeginDocument{\AtBeginDocument}
\HyperFirstAtBeginDocument{\ifx\hyper@anchor\@undefined
\global\let\oldnewlabel\newlabel
\gdef\newlabel#1#2{\newlabelxx{#1}#2}
\gdef\newlabelxx#1#2#3#4#5#6{\oldnewlabel{#1}{{#2}{#3}}}
\AtEndDocument{\ifx\hyper@anchor\@undefined
\let\newlabel\oldnewlabel
\fi}
\fi}
\global\let\hyper@last\relax 
\gdef\HyperFirstAtBeginDocument#1{#1}
\providecommand\HyField@AuxAddToFields[1]{}
\providecommand\HyField@AuxAddToCoFields[2]{}
\citation{Goetschy2011Nov}
\citation{Antezza2009Sep}
\citation{Milonni1994}
\citation{Cohen-Tannoudji1997Mar}
\babel@aux{british}{}
\@writefile{toc}{\contentsline {chapter}{\numberline {3}Lattice of sub-wavelength resonators}{1}{chapter.3}\protected@file@percent }
\@writefile{lof}{\addvspace {10\p@ }}
\@writefile{lot}{\addvspace {10\p@ }}
\pgfsyspdfmark {pgfid1}{4661699}{45126850}
\pgfsyspdfmark {pgfid2}{4661699}{38398416}
\@writefile{toc}{\contentsline {section}{\numberline {3.1}One atom in the vacuum}{1}{section.3.1}\protected@file@percent }
\newlabel{eq:ham-raw}{{3.3}{1}{One atom in the vacuum}{equation.3.1.2}{}}
\newlabel{eq:ham-raw@cref}{{[section][1][3]3.1}{[1][1][]1}}
\citation{Brechtelsbauer2021Jul}
\@writefile{lof}{\contentsline {figure}{\numberline {3.1}{\ignorespaces On the left, we depict a two-level atom with a three-fold degenerate excited state, represented by the Hamiltonian $H_{\ensuremath  {\operatorname  {atom}}}$ for this atom. On the right, we have illustrated the photon bath in which this atom is immersed; the Hamiltonian represents this transverse electric field: $H_{\ensuremath  {\operatorname  {trans}}}$. Finally, the interaction between the two is handled by our Hamiltonian $H_{\ensuremath  {\operatorname  {int}}}$. In this part we show how the $H_{\ensuremath  {\operatorname  {int}}}$ finally translates itself into a decay time of $1 / \Gamma _0$.\relax }}{2}{figure.caption.1}\protected@file@percent }
\providecommand*\caption@xref[2]{\@setref\relax\@undefined{#1}}
\newlabel{fig:2level_bath}{{3.1}{2}{On the left, we depict a two-level atom with a three-fold degenerate excited state, represented by the Hamiltonian $H_{\tmop {atom}}$ for this atom. On the right, we have illustrated the photon bath in which this atom is immersed; the Hamiltonian represents this transverse electric field: $H_{\tmop {trans}}$. Finally, the interaction between the two is handled by our Hamiltonian $H_{\tmop {int}}$. In this part we show how the $H_{\tmop {int}}$ finally translates itself into a decay time of $1 / \Gamma _0$.\relax }{figure.caption.1}{}}
\newlabel{fig:2level_bath@cref}{{[figure][1][3]3.1}{[1][1][]2}}
\newlabel{eq:a-sol}{{3.9}{2}{One atom in the vacuum}{equation.3.1.9}{}}
\newlabel{eq:a-sol@cref}{{[equation][9][3]3.9}{[1][2][]2}}
\citation{Milonni1994}
\citation{Clerk1865Dec}
\@writefile{toc}{\contentsline {section}{\numberline {3.2}$N$ atoms in the vacuum}{5}{section.3.2}\protected@file@percent }
\@writefile{toc}{\contentsline {subsection}{\numberline {3.2.1}Maxwell equations}{5}{subsection.3.2.1}\protected@file@percent }
\newlabel{eq:max-gauss}{{3.31}{5}{Maxwell equations}{equation.3.2.31}{}}
\newlabel{eq:max-gauss@cref}{{[equation][31][3]3.31}{[1][5][]5}}
\newlabel{eq:max-thomson}{{3.32}{5}{Maxwell equations}{equation.3.2.32}{}}
\newlabel{eq:max-thomson@cref}{{[equation][32][3]3.32}{[1][5][]5}}
\newlabel{eq:max-faraday}{{3.33}{5}{Maxwell equations}{equation.3.2.33}{}}
\newlabel{eq:max-faraday@cref}{{[equation][33][3]3.33}{[1][5][]5}}
\newlabel{eq:max-ampere}{{3.34}{5}{Maxwell equations}{equation.3.2.34}{}}
\newlabel{eq:max-ampere@cref}{{[equation][34][3]3.34}{[1][5][]5}}
\newlabel{eq:continuite}{{3.35}{5}{Maxwell equations}{equation.3.2.35}{}}
\newlabel{eq:continuite@cref}{{[equation][35][3]3.35}{[1][5][]5}}
\@writefile{toc}{\contentsline {subsection}{\numberline {3.2.2}Wave equation in Fourier space}{6}{subsection.3.2.2}\protected@file@percent }
\@writefile{toc}{\contentsline {subsection}{\numberline {3.2.3}Green propagator}{6}{subsection.3.2.3}\protected@file@percent }
\@writefile{lof}{\contentsline {figure}{\numberline {3.2}{\ignorespaces The interaction between atoms is governed by the real part of $\mathcal  {G} (\mathbf  {r})$, while it's the imaginary part that handles the interaction with the electric field. This is where we find the $\Gamma _0$ from the previous part.\relax }}{7}{figure.caption.2}\protected@file@percent }
\newlabel{fig:2level_bath_N}{{3.2}{7}{The interaction between atoms is governed by the real part of $\mathcal {G} (\mathbf {r})$, while it's the imaginary part that handles the interaction with the electric field. This is where we find the $\Gamma _0$ from the previous part.\relax }{figure.caption.2}{}}
\newlabel{fig:2level_bath_N@cref}{{[figure][2][3]3.2}{[1][6][]7}}
\@writefile{toc}{\contentsline {subsection}{\numberline {3.2.4}Effective Hamiltonian for $N$ atoms}{7}{subsection.3.2.4}\protected@file@percent }
\citation{haroche89}
\citation{dowling93}
\citation{hulet85}
\citation{jhe87}
\citation{milonni73}
\citation{milonni73}
\citation{milonni73}
\citation{milonni73}
\citation{milonni73}
\@writefile{lof}{\contentsline {figure}{\numberline {3.3}{\ignorespaces One atom in a Frby-Pérot cavity\relax }}{8}{figure.caption.3}\protected@file@percent }
\newlabel{fig:schema_1atom}{{3.3}{8}{One atom in a Frby-Pérot cavity\relax }{figure.caption.3}{}}
\newlabel{fig:schema_1atom@cref}{{[figure][3][3]3.3}{[1][8][]8}}
\@writefile{toc}{\contentsline {section}{\numberline {3.3}Atom in a Fabry-P\'{e}rot cavity}{8}{section.3.3}\protected@file@percent }
\newlabel{sec:1atom}{{3.3}{8}{Atom in a Fabry-P\'{e}rot cavity}{section.3.3}{}}
\newlabel{sec:1atom@cref}{{[section][3][3]3.3}{[1][7][]8}}
\newlabel{shift}{{3.57}{8}{Atom in a Fabry-P\'{e}rot cavity}{equation.3.3.57}{}}
\newlabel{shift@cref}{{[section][3][3]3.3}{[1][8][]8}}
\newlabel{decay}{{3.58}{8}{Atom in a Fabry-P\'{e}rot cavity}{equation.3.3.57}{}}
\newlabel{decay@cref}{{[section][3][3]3.3}{[1][8][]8}}
\newlabel{maxmin}{{3.59}{8}{Atom in a Fabry-P\'{e}rot cavity}{equation.3.3.59}{}}
\newlabel{maxmin@cref}{{[section][3][3]3.3}{[1][8][]8}}
\newlabel{2pin}{{3.60}{8}{Atom in a Fabry-P\'{e}rot cavity}{equation.3.3.60}{}}
\newlabel{2pin@cref}{{[section][3][3]3.3}{[1][8][]8}}
\bibstyle{apalike}
\bibdata{refs_chapter2b}
\@writefile{lof}{\contentsline {figure}{\numberline {3.4}{\ignorespaces Shift of the resonance frequency (a) and decay rate of the excited state (b) of a single atom in the middle of a Fabry-P\'{e}rot cavity for the dipole moment of the atomic transition parallel to the mirrors (red solid lines). Dashed lines show results of Ref.\ \cite  {milonni73}. Dotted lines in (b) show Eq.\ (\ref {maxmin}).\relax }}{9}{figure.caption.4}\protected@file@percent }
\newlabel{fig:1atom}{{3.4}{9}{Shift of the resonance frequency (a) and decay rate of the excited state (b) of a single atom in the middle of a Fabry-P\'{e}rot cavity for the dipole moment of the atomic transition parallel to the mirrors (red solid lines). Dashed lines show results of Ref.\ \cite {milonni73}. Dotted lines in (b) show Eq.\ (\ref {maxmin}).\relax }{figure.caption.4}{}}
\newlabel{fig:1atom@cref}{{[figure][4][3]3.4}{[1][8][]9}}
\bibcite{Antezza2009Sep}{Antezza and Castin, 2009}
\bibcite{Brechtelsbauer2021Jul}{Brechtelsbauer and Malz, 2021}
\bibcite{Clerk1865Dec}{Clerk, 1865}
\bibcite{Cohen-Tannoudji1997Mar}{Cohen-Tannoudji et~al., 1997}
\bibcite{Goetschy2011Nov}{Goetschy, 2011}
\bibcite{Milonni1994}{Milonni, 1994}
\gdef \@abspage@last{11}
